# Blender v2.92.0 OBJ File: ''
# www.blender.org
mtllib untitled.mtl
o MyBench_MyBench.002
v -0.998859 0.300197 -0.104588
v -0.998859 0.300197 -0.232507
v -0.998859 0.268217 -0.232507
v -0.998859 0.268217 -0.104588
v -0.049461 0.300157 -0.104588
v 0.050475 0.292202 -0.104588
v 0.050475 0.300197 -0.104588
v 0.999873 0.300197 0.191224
v -0.998859 0.300197 0.191224
v -0.998859 0.268217 0.191224
v 0.999873 0.268217 0.191224
v 0.999873 0.300197 0.063305
v 0.999873 0.268217 0.063305
v 0.050475 0.300197 0.063305
v 0.050475 0.292202 0.063305
v -0.049461 0.292202 0.063305
v -0.049461 0.300197 0.063305
v -0.049461 0.300197 0.039320
v -0.049461 0.292202 0.039320
v 0.050475 0.292202 0.039320
v 0.050475 0.300197 0.039320
v -0.049461 0.262221 0.039320
v -0.848954 0.292202 0.039320
v -0.848954 0.262221 0.039320
v -0.848954 0.292202 0.063305
v -0.749017 0.292202 0.063305
v -0.749017 0.262221 0.063305
v -0.749017 0.292202 0.039320
v 0.050475 0.262221 0.063305
v 0.750032 0.292202 0.039320
v 0.750032 0.262221 0.039320
v 0.750032 0.292202 0.063305
v 0.849968 0.292202 0.039320
v 0.050475 0.300197 -0.088598
v 0.050475 0.292202 -0.088598
v -0.049461 0.292202 -0.088598
v -0.049461 0.300197 -0.088598
v -0.049461 0.260222 -0.104588
v -0.848954 0.292202 -0.104588
v -0.848954 0.261821 -0.104588
v -0.848954 0.292202 -0.088598
v -0.749017 0.292202 -0.088598
v -0.749017 0.262221 -0.088598
v -0.749017 0.292202 -0.104588
v 0.050475 0.262221 -0.088598
v 0.750032 0.292202 -0.104588
v 0.750032 0.261821 -0.104588
v 0.750032 0.292202 -0.088598
v 0.849968 0.260222 -0.088598
v 0.849968 0.292202 -0.104588
v 0.999873 0.300197 -0.088598
v -0.998859 0.300197 -0.088598
v -0.998859 0.300197 0.039320
v 0.999873 0.300197 0.039320
v 0.050475 0.263420 0.039320
v 0.750032 0.263420 -0.088598
v -0.049461 0.263420 -0.088598
v -0.848954 0.263420 -0.088598
v -0.749017 0.263420 0.039320
v 0.849968 0.268217 -0.088598
v 0.849968 0.262221 0.039320
v 0.999873 0.268217 0.039320
v 0.999873 0.268217 -0.088598
v -0.998859 0.268217 0.039320
v -0.998859 0.268217 -0.088598
v 0.750032 0.300197 -0.088598
v 0.849968 0.300157 -0.088598
v -0.848954 0.300197 -0.088598
v -0.749017 0.300197 -0.088598
v 0.750032 0.300197 0.039320
v 0.849968 0.300197 0.039320
v -0.848954 0.300197 0.039320
v -0.749017 0.300197 0.039320
v -0.998859 0.300197 0.063305
v -0.049461 0.263420 0.063305
v -0.049461 0.268141 0.176234
v -0.848954 0.268217 0.176234
v -0.848954 0.268064 0.063305
v -0.749017 0.268217 0.176234
v -0.749017 0.260222 0.176234
v -0.830965 0.260222 0.063305
v -0.831055 0.260222 0.176234
v -0.767006 0.260222 0.176234
v -0.767006 0.260310 0.063431
v -0.830965 0.260222 0.103747
v -0.767006 0.260222 0.127274
v 0.050475 0.268064 0.176234
v 0.750032 0.268217 0.176234
v 0.750032 0.264220 0.063305
v 0.849968 0.260222 0.176234
v 0.849968 0.268217 0.063305
v 0.849968 0.268217 0.176234
v 0.768020 0.260222 0.063305
v 0.767931 0.260222 0.176234
v 0.831980 0.260222 0.176234
v 0.832158 0.260222 0.063305
v 0.831980 0.260222 0.091983
v 0.768020 0.260222 0.103747
v 0.831980 0.260222 0.127274
v 0.999873 0.268217 0.176234
v -0.998859 0.268217 0.063305
v -0.848954 0.268217 0.191224
v 0.750032 0.300197 0.063305
v 0.849968 0.300157 0.063305
v -0.848954 0.300197 0.063305
v -0.749017 0.300197 0.063305
v 0.999873 0.300197 -0.232507
v 0.999873 0.300197 -0.104588
v 0.999873 0.268217 -0.104588
v 0.999873 0.268217 -0.232507
v 0.050475 0.300197 -0.232507
v 0.050475 0.292202 -0.232507
v -0.049461 0.292202 -0.232507
v -0.049461 0.300197 -0.232507
v -0.848954 0.292202 -0.232507
v -0.830965 0.007245 -0.296077
v -0.767274 0.010955 -0.306461
v 0.750032 0.292202 -0.232507
v 0.849968 0.292202 -0.232507
v 0.849968 0.265552 -0.232507
v 0.768020 0.007245 -0.296077
v 0.831980 0.011026 -0.306464
v 0.050475 0.260378 -0.104591
v 0.050475 0.268217 -0.232507
v 0.750032 0.265552 -0.232507
v -0.049461 0.268217 -0.104588
v -0.049461 0.268217 -0.232507
v -0.848954 0.265552 -0.232507
v -0.749017 0.268217 -0.232507
v -0.749018 0.260377 -0.104590
v -0.830965 0.260222 -0.104588
v -0.767005 0.260207 -0.232464
v -0.830964 0.260193 -0.232463
v 0.849968 0.262221 -0.104588
v 0.768020 0.260222 -0.104588
v 0.831980 0.260207 -0.232485
v 0.750032 0.300197 -0.232507
v 0.849968 0.300197 -0.232507
v -0.848954 0.300197 -0.232507
v -0.749017 0.300197 -0.232507
v 0.750032 0.300197 -0.104588
v 0.849968 0.300197 -0.104588
v -0.848954 0.300197 -0.104588
v -0.749017 0.300197 -0.104588
v -0.767006 0.007245 0.195823
v -0.830965 0.011026 0.206211
v 0.831980 0.007245 0.195823
v 0.768020 0.011026 0.206211
v -0.767006 0.260222 -0.192237
v -0.015483 0.292202 -0.232507
v 0.016497 0.292202 -0.232507
v 0.831980 0.260222 -0.192237
v 0.768020 0.260192 -0.232464
v 0.768020 0.260222 -0.192237
v -0.767006 0.260222 -0.104588
v -0.830965 0.260222 -0.192237
v 0.831980 0.260222 -0.104588
vt 2.000000 3.000000
vt 0.000000 3.000000
vt 0.000000 1.000000
vt 2.000000 1.000000
vt 1.049805 3.000000
vt 0.949707 2.997513
vt 1.049805 2.500000
vt 2.000000 3.000000
vt 0.000000 3.000000
vt 0.000000 1.000000
vt 2.000000 1.000000
vt 2.000000 3.000000
vt 0.000000 3.000000
vt 0.000000 1.000000
vt 2.000000 1.000000
vt 0.949707 3.000000
vt 0.949707 2.500000
vt 1.049805 2.500000
vt 1.049805 3.000000
vt 0.949707 3.000000
vt 0.949707 2.500000
vt 1.049805 2.500000
vt 1.049805 3.000000
vt 1.390625 3.000000
vt 1.390625 1.125000
vt 1.497070 1.200000
vt 1.497070 3.000000
vt 1.390625 3.000000
vt 1.390625 1.125000
vt 1.497070 1.000000
vt 1.497070 3.000000
vt 0.501953 3.000000
vt 0.501953 1.000000
vt 0.608887 1.200000
vt 0.608887 3.000000
vt 2.000000 1.608887
vt 0.000000 1.608887
vt 0.000000 1.501953
vt 2.000000 1.501953
vt 0.501953 3.000000
vt 0.501953 1.125000
vt 0.608887 1.200000
vt 0.608887 3.000000
vt 1.390625 3.000000
vt 1.390625 1.125000
vt 1.497070 1.000000
vt 1.497070 3.000000
vt 0.501953 3.000000
vt 0.501953 1.000000
vt 0.608887 1.125000
vt 0.608887 3.000000
vt 2.000000 1.608887
vt 0.000000 1.608887
vt 0.000000 1.501953
vt 2.000000 1.501953
vt 2.000000 1.608887
vt 0.000000 1.608887
vt 0.000000 1.501953
vt 2.000000 1.501953
vt 0.949707 3.000000
vt 0.949707 2.500000
vt 1.049805 2.500000
vt 1.049805 3.000000
vt 0.750977 3.000000
vt 0.750977 1.000000
vt 0.821777 1.200000
vt 0.821777 3.000000
vt 0.750977 3.000000
vt 0.750977 1.000000
vt 0.821777 1.200000
vt 0.821777 3.000000
vt 1.177734 3.000000
vt 1.177734 1.125000
vt 1.248047 1.000000
vt 1.248047 3.000000
vt 2.000000 2.248047
vt 0.000000 2.248047
vt 0.000000 2.177734
vt 2.000000 2.177734
vt 1.177734 3.000000
vt 1.177734 1.125000
vt 1.248047 1.000000
vt 1.248047 3.000000
vt 0.750977 3.000000
vt 0.750977 1.000000
vt 0.821777 1.200000
vt 0.821777 3.000000
vt 1.177734 3.000000
vt 1.177734 1.000000
vt 1.248047 1.000000
vt 1.248047 3.000000
vt 2.000000 2.248047
vt 0.000000 2.248047
vt 0.000000 2.177734
vt 2.000000 2.177734
vt 2.000000 2.248047
vt 0.000000 2.248047
vt 0.000000 2.177734
vt 2.000000 2.177734
vt 2.000000 3.000000
vt 0.000000 3.000000
vt 0.000000 1.000000
vt 2.000000 1.000000
vt 1.049805 3.000000
vt 1.049805 1.000000
vt 1.750000 1.000000
vt 1.750000 3.000000
vt 1.177734 1.500000
vt 2.000000 3.000000
vt 1.849609 3.000000
vt 1.849609 1.000000
vt 2.000000 1.000000
vt 0.000000 3.000000
vt 0.000000 1.000000
vt 0.149902 1.000000
vt 0.149902 3.000000
vt 0.250000 3.000000
vt 0.250000 1.000000
vt 0.949707 1.000000
vt 0.949707 3.000000
vt 0.250000 3.000000
vt 0.250000 1.000000
vt 0.949707 1.000000
vt 0.000000 3.000000
vt 0.000000 1.000000
vt 0.149902 1.000000
vt 0.149902 3.000000
vt 0.149902 2.997513
vt 0.250000 2.500000
vt 2.000000 3.000000
vt 1.849609 3.000000
vt 1.849609 1.000000
vt 2.000000 1.000000
vt 1.049805 1.000000
vt 1.750000 1.000000
vt 1.750000 3.000000
vt 1.750000 2.500000
vt 1.849609 2.500000
vt 1.049805 1.000000
vt 1.750000 1.000000
vt 1.750000 3.000000
vt 2.000000 3.000000
vt 1.849609 3.000000
vt 1.849609 1.000000
vt 2.000000 1.000000
vt 1.750000 2.500000
vt 1.849609 2.500000
vt 0.000000 3.000000
vt 0.000000 1.000000
vt 0.149902 1.000000
vt 0.149902 3.000000
vt 0.250000 3.000000
vt 0.250000 1.000000
vt 0.949707 1.000000
vt 0.149902 2.500000
vt 0.250000 2.500000
vt 0.000000 3.000000
vt 0.000000 1.000000
vt 2.000000 1.000000
vt 2.000000 1.000000
vt 2.000000 1.500000
vt 1.497070 1.490385
vt 2.000000 1.500000
vt 0.000000 1.500000
vt 0.000000 1.000000
vt 2.000000 1.000000
vt 0.000000 1.500000
vt 0.000000 1.000000
vt 0.501953 1.125000
vt 0.358072 3.000000
vt 0.000000 2.497070
vt 0.359863 2.497070
vt 2.000000 3.000000
vt 1.639648 3.000000
vt 1.639648 2.497070
vt 2.000000 2.497070
vt 0.359863 2.625000
vt 1.639648 2.497632
vt 0.359863 3.000000
vt 0.359863 2.782227
vt 1.639648 2.782227
vt 2.000000 1.000000
vt 2.000000 1.500000
vt 1.497070 1.250000
vt 0.000000 1.000000
vt 0.501953 1.500000
vt 0.000000 1.500000
vt 0.358073 3.000000
vt 0.000000 2.497070
vt 0.359863 2.497070
vt 2.000000 3.000000
vt 1.639648 3.000000
vt 1.643216 2.497070
vt 1.639648 2.497070
vt 1.639648 2.625000
vt 0.359863 2.625000
vt 0.359863 3.000000
vt 0.359863 2.782227
vt 1.639648 2.782227
vt 2.000000 1.500000
vt 0.000000 1.500000
vt 0.000000 1.000000
vt 2.000000 1.000000
vt 1.049805 2.765625
vt 1.049805 1.000000
vt 1.750000 1.000000
vt 1.750000 2.765625
vt 2.000000 2.765625
vt 1.849609 2.765625
vt 1.849609 1.000000
vt 0.000000 3.000000
vt 0.000000 1.000000
vt 0.149902 1.000000
vt 0.149902 3.000000
vt 0.949707 1.000000
vt 0.949707 2.765625
vt 0.250000 2.765625
vt 0.250000 1.000000
vt 0.250000 3.000000
vt 0.250000 1.000000
vt 0.949707 1.000000
vt 0.000000 3.000000
vt 0.000000 1.000000
vt 0.149902 1.000000
vt 0.149902 3.000000
vt 0.149902 2.997513
vt 0.250000 2.500000
vt 2.000000 3.000000
vt 1.849609 3.000000
vt 1.849609 1.000000
vt 2.000000 1.000000
vt 1.049805 1.000000
vt 1.750000 1.000000
vt 1.750000 3.000000
vt 1.750000 2.500000
vt 1.849609 2.500000
vt 0.000000 3.000000
vt 0.000000 1.000000
vt 2.000000 3.000000
vt 0.000000 3.000000
vt 0.000000 1.000000
vt 2.000000 1.000000
vt 0.949707 3.000000
vt 0.949707 2.500000
vt 1.049805 2.500000
vt 1.049805 3.000000
vt 0.000000 1.000000
vt 2.000000 1.000000
vt 1.049805 3.000000
vt 1.049805 1.000000
vt 1.750000 1.000000
vt 1.750000 3.000000
vt 0.000000 1.750977
vt 0.000000 1.182129
vt 0.359863 1.182129
vt 0.359863 1.750977
vt 2.000000 1.750977
vt 1.639648 1.750977
vt 1.639648 1.182129
vt 0.000000 1.750977
vt 0.000000 1.182129
vt 0.359863 1.182129
vt 0.359863 1.750977
vt 2.000000 1.750977
vt 1.639648 1.750977
vt 1.639648 1.182129
vt 2.000000 1.182129
vt 2.000000 3.000000
vt 1.849609 3.000000
vt 1.849609 1.000000
vt 0.000000 3.000000
vt 0.149902 1.000000
vt 0.149902 3.000000
vt 0.250000 3.000000
vt 0.250000 1.000000
vt 0.949707 1.000000
vt 0.949707 3.000000
vt 0.250000 3.000000
vt 0.250000 1.000000
vt 0.949707 1.000000
vt 0.000000 3.000000
vt 0.000000 1.000000
vt 0.149902 1.000000
vt 0.149902 3.000000
vt 0.149902 2.500000
vt 0.250000 2.500000
vt 2.000000 3.000000
vt 1.849609 3.000000
vt 1.849609 1.000000
vt 2.000000 1.000000
vt 1.049805 1.000000
vt 1.750000 1.000000
vt 1.750000 3.000000
vt 1.849609 2.500000
vt 1.049805 1.000000
vt 1.750000 1.000000
vt 1.750000 3.000000
vt 2.000000 3.000000
vt 1.849609 3.000000
vt 1.849609 1.000000
vt 2.000000 1.000000
vt 1.750000 2.500000
vt 1.849609 2.500000
vt 0.000000 3.000000
vt 0.000000 1.000000
vt 0.149902 1.000000
vt 0.149902 3.000000
vt 0.250000 3.000000
vt 0.250000 1.000000
vt 0.949707 1.000000
vt 0.949707 3.000000
vt 0.149902 2.500000
vt 0.250000 2.500000
vt 2.000000 3.000000
vt 2.000000 1.000000
vt 2.000000 3.000000
vt 2.000000 1.000000
vt 0.000000 2.390625
vt 2.000000 2.390625
vt 0.000000 1.821777
vt 2.000000 1.821777
vt 2.000000 2.497070
vt 0.000000 2.390625
vt 2.000000 2.390625
vt 0.000000 1.821777
vt 2.000000 1.821777
vt 2.000000 2.333333
vt -0.000000 1.666666
vt 0.000000 1.177246
vt 2.000000 1.177246
vt 0.177246 3.000000
vt 0.257568 1.000000
vt 2.000000 2.742188
vt 0.000000 2.742188
vt 2.000000 2.333332
vt -0.000000 1.666340
vt 0.000000 1.177246
vt 2.000000 1.177246
vt 0.177246 3.000000
vt 0.257568 1.000000
vt 2.000000 2.742188
vt 0.000000 2.742188
vt 2.000000 3.000000
vt 0.000000 3.000000
vt 0.000000 2.497070
vt 2.000000 2.497070
vt 0.000000 2.390625
vt 2.000000 2.390625
vt 0.000000 1.821777
vt 2.000000 1.821777
vt 0.000000 1.750977
vt 2.000000 1.750977
vt 1.822266 2.999023
vt -0.000000 1.668329
vt 1.742188 1.000000
vt 2.000000 3.000000
vt 0.000000 3.000000
vt 0.000000 1.257568
vt 2.000000 1.257568
vt 1.822266 2.999023
vt -0.000000 1.666667
vt 1.742188 1.000000
vt 2.000000 3.000000
vt 0.000000 3.000000
vt 0.000000 1.257568
vt 2.000000 1.257568
vt 0.177246 3.000000
vt 0.257568 1.000000
vt 2.000000 2.333333
vt 2.000000 2.822266
vt 0.000000 2.822266
vt 0.000000 1.000000
vt 2.000000 1.000000
vt 2.000000 2.333333
vt 0.177246 3.000000
vt 0.257568 1.000000
vt 2.000000 2.822266
vt 0.000000 2.822266
vt 0.000000 1.000000
vt 2.000000 1.000000
vt 2.000000 3.000000
vt 0.149902 2.765625
vt 0.359863 1.361084
vt 1.639648 1.361084
vt 0.359863 1.361084
vt 1.639648 1.361084
vn -1.0000 -0.0039 -0.0039
vn -0.0039 -0.0039 1.0000
vn 0.0640 0.8723 0.4848
vn 0.0095 0.7081 0.7060
vn 1.0000 -0.0039 -0.0039
vn -0.0039 -0.0039 -1.0000
vn -1.0000 -0.0040 -0.0038
vn -1.0000 -0.0041 -0.0038
vn -1.0000 -0.0044 -0.0034
vn -1.0000 -0.0046 -0.0031
vn 1.0000 -0.0038 -0.0041
vn 1.0000 -0.0038 -0.0040
vn -0.0039 1.0000 -0.0039
vn -0.0039 0.7031 -0.7110
vn 0.0000 0.7031 -0.7110
vn -1.0000 -0.0042 -0.0037
vn 0.9399 -0.1875 0.2852
vn 0.7690 -0.3460 0.5375
vn 0.8895 -0.2490 0.3831
vn 1.0000 -0.0041 -0.0037
vn -0.0684 0.9597 -0.2727
vn -0.0115 0.7055 -0.7087
vn -0.0779 0.9286 -0.3628
vn -1.0000 -0.0036 -0.0042
vn -1.0000 -0.0043 -0.0035
vn -1.0000 -0.0045 -0.0032
vn -1.0000 -0.0029 -0.0047
vn -1.0000 -0.0041 -0.0037
vn -1.0000 -0.0042 -0.0036
vn 1.0000 -0.0043 -0.0035
vn 1.0000 -0.0042 -0.0037
vn 1.0000 -0.0047 -0.0029
vn 1.0000 -0.0035 -0.0043
vn 1.0000 -0.0037 -0.0042
vn 1.0000 -0.0042 -0.0036
vn -0.0684 0.9108 -0.4072
vn -0.0088 0.7053 -0.7088
vn -0.0732 0.8699 -0.4878
vn 0.0608 0.9143 0.4004
vn -0.0026 -1.0000 0.0033
vn -0.0022 -1.0000 0.0054
vn -0.0052 -0.9999 -0.0111
vn -0.0056 -0.9999 -0.0133
vn 1.0000 -0.0040 -0.0039
vn 0.7095 -0.7045 -0.0187
vn 0.0360 -0.9981 -0.0507
vn 0.0181 -0.9994 -0.0297
vn 0.7031 -0.7110 -0.0039
vn -0.0395 -0.9992 -0.0081
vn -0.0359 -0.9993 -0.0039
vn -0.0403 -0.9991 -0.0091
vn -0.0439 -0.9989 -0.0133
vn -0.0040 -0.0039 -1.0000
vn -0.0040 -0.0038 -1.0000
vn -0.0041 -0.0038 -1.0000
vn -0.0038 -0.0041 1.0000
vn -0.0039 -0.0040 1.0000
vn -0.0038 -0.0040 1.0000
vn -0.0040 -0.0039 1.0000
vn -0.0041 -0.0038 1.0000
vn -0.0040 -0.0038 1.0000
vn -0.4048 -0.9144 -0.0032
vn -0.4044 -0.9146 -0.0028
vn -0.4047 -0.9144 -0.0032
vn 0.0010 -0.0055 1.0000
vn -0.0012 -0.0054 1.0000
vn 0.4282 -0.9034 0.0211
vn 1.0000 -0.0041 -0.0038
vn 0.8928 -0.4497 0.0240
vn -0.4037 -0.9149 -0.0035
vn -0.4035 -0.9150 -0.0039
vn -0.4033 -0.9151 -0.0041
vn 0.0067 -1.0000 -0.0064
vn -0.0039 -1.0000 -0.0047
vn 0.0910 -0.9956 -0.0199
vn 0.1016 -0.9946 -0.0215
vn -0.0029 -1.0000 -0.0035
vn -0.0032 -1.0000 -0.0031
vn -0.0038 -1.0000 -0.0019
vn -0.0039 -1.0000 -0.0039
vn -0.0032 -1.0000 -0.0046
vn -0.0026 -1.0000 -0.0049
vn -0.4046 -0.9141 0.0279
vn -0.4042 -0.9142 0.0283
vn -0.4045 -0.9141 0.0279
vn 0.0391 -0.9992 -0.0087
vn 0.3671 -0.9281 -0.0625
vn 0.4049 -0.9118 -0.0683
vn -0.2213 -0.9752 -0.0034
vn -0.2211 -0.9753 -0.0038
vn -0.2209 -0.9753 -0.0040
vn -0.1137 -0.7967 -0.5935
vn 0.4632 -0.5706 -0.6781
vn -0.0011 -0.9989 0.0477
vn -0.0037 -0.9995 0.0314
vn -0.0050 -1.0000 -0.0039
vn -0.0039 -1.0000 -0.0027
vn -0.0100 -0.9991 0.0421
vn -0.0053 -0.9992 0.0390
vn 0.4424 -0.8962 0.0335
vn -0.0022 -0.9988 0.0491
vn -0.0039 0.7032 -0.7110
vn 0.0000 0.7032 -0.7110
vn -0.0071 -0.9981 -0.0614
vn -0.0077 -0.9978 -0.0651
vn -0.0026 -0.9993 -0.0368
vn -0.0019 -0.9995 -0.0331
vn -0.2891 -0.9568 -0.0318
vn -0.2891 -0.9568 -0.0319
vn -0.0925 -0.9957 -0.0037
vn 0.0047 -1.0000 -0.0038
vn -0.2892 -0.9568 -0.0318
vn 0.1228 -0.9924 -0.0062
vn 0.1065 -0.9943 -0.0038
vn 0.2657 -0.9637 -0.0267
vn 0.2809 -0.9593 -0.0289
vn 0.0238 -0.9996 -0.0156
vn 0.0360 -0.9989 -0.0299
vn 0.0261 -0.9995 -0.0182
vn 0.0138 -0.9999 -0.0039
vn -0.0329 -0.9993 -0.0170
vn -0.0217 -0.9998 -0.0039
vn -0.0354 -0.9992 -0.0199
vn -0.0465 -0.9984 -0.0331
vn -0.0027 -0.9983 -0.0581
vn -0.0039 -0.9979 -0.0651
vn 0.0060 -0.9999 -0.0110
vn 0.0073 -1.0000 -0.0039
vn -0.0039 -0.0040 -1.0000
vn -0.0026 -0.9999 -0.0100
vn -0.0606 -0.9707 0.2324
vn -0.0215 -0.9958 0.0890
vn 0.0030 -0.9996 -0.0296
vn -0.0107 -0.9989 0.0467
vn -0.0169 -0.9982 0.0575
vn -0.0161 -0.9951 0.0971
vn -0.0183 -0.9937 0.1107
vn -0.0088 -0.9977 -0.0667
vn -0.0524 -0.9955 0.0790
vn -0.0239 -0.9996 0.0178
vn -0.0117 -0.9993 -0.0347
vn -0.0290 -0.9984 0.0484
vn -0.0199 -0.9987 -0.0470
vn -0.0322 -0.9968 0.0730
vn 0.0000 -0.9918 -0.1279
vn 0.4944 -0.8426 0.2135
vn -0.5927 -0.7226 0.3557
vn -0.9816 -0.1508 -0.1173
vn 0.3670 -0.4327 -0.8234
vn -0.2592 0.3510 0.8998
vn 0.5337 -0.8239 0.1903
vn -0.6135 -0.7072 0.3514
vn -0.3258 0.3597 0.8743
vn -0.0099 -0.9991 0.0424
vn -0.0058 -1.0000 0.0044
vn -0.0022 -1.0000 0.0088
vn -0.0106 -0.9954 0.0954
vn -0.0098 -0.9980 0.0624
vn -0.0144 -0.9828 0.1840
vn -0.0024 -0.9939 0.1106
vn 1.0000 -0.0060 -0.0025
vn 0.5795 -0.3706 -0.7259
vn 1.0000 -0.0052 -0.0037
vn 0.1420 -0.9067 -0.3971
vn -0.5485 -0.8145 -0.1890
vn -0.0303 0.2757 -0.9608
vn -0.0040 0.2821 -0.9594
vn 1.0000 -0.0037 -0.0041
vn 0.5486 -0.7539 -0.3614
vn 0.7620 0.1905 -0.6189
vn -0.1319 -0.9672 -0.2172
vn -0.0305 0.2814 -0.9591
vn -0.6028 -0.3111 0.7347
vn -1.0000 -0.0043 -0.0036
vn 0.0221 -0.3923 0.9196
vn -1.0000 0.0053 0.0016
vn -1.0000 -0.0038 -0.0040
vn -1.0000 -0.0031 -0.0046
vn 0.0212 -0.3920 0.9197
vn -0.0039 -0.3866 0.9223
vn -0.0046 -1.0000 -0.0030
vn -0.0039 -1.0000 0.0011
vn -0.0040 -1.0000 -0.0039
vn -0.0003 -1.0000 -0.0056
vn -0.0041 -1.0000 -0.0038
vn -0.0051 -1.0000 -0.0021
vn -0.0038 -1.0000 -0.0040
vn -0.0034 -1.0000 -0.0044
vn -0.0037 -1.0000 -0.0042
g MyBench_MyBench.002_Fbx_Default_Material.001
usemtl Fbx_Default_Material.001
s 1
f 1/1/1 2/2/1 3/3/1
f 4/4/1 1/1/1 3/3/1
f 7/5/2 5/6/3 6/7/4
f 8/8/2 9/9/2 10/10/2
f 11/11/2 8/8/2 10/10/2
f 12/12/5 8/13/5 11/14/5
f 13/15/5 12/12/5 11/14/5
f 14/16/6 15/17/6 16/18/6
f 17/19/6 14/16/6 16/18/6
f 18/20/2 19/21/2 20/22/2
f 21/23/2 18/20/2 20/22/2
f 19/24/1 22/25/7 75/26/8
f 16/27/1 19/24/1 75/26/8
f 23/28/1 24/29/9 78/30/10
f 25/31/1 23/28/1 78/30/10
f 26/32/5 27/33/11 59/34/12
f 28/35/5 26/32/5 59/34/12
f 28/36/13 23/37/13 25/38/14
f 26/39/15 28/36/13 25/38/14
f 15/40/5 29/41/11 55/42/12
f 20/43/5 15/40/5 55/42/12
f 30/44/1 31/45/8 89/46/16
f 32/47/1 30/44/1 89/46/16
f 104/48/17 96/49/18 61/50/19
f 33/51/20 104/48/17 61/50/19
f 33/52/21 30/53/13 32/54/22
f 104/55/23 33/52/21 32/54/22
f 20/56/13 19/57/13 16/58/13
f 15/59/13 20/56/13 16/58/13
f 34/60/6 35/61/6 36/62/6
f 37/63/6 34/60/6 36/62/6
f 5/64/24 38/65/25 57/66/26
f 36/67/27 5/64/24 57/66/26
f 39/68/1 40/69/28 58/70/29
f 41/71/1 39/68/1 58/70/29
f 42/72/5 43/73/30 130/74/31
f 44/75/5 42/72/5 130/74/31
f 44/76/13 39/77/13 41/78/13
f 42/79/13 44/76/13 41/78/13
f 35/80/5 45/81/30 123/82/20
f 6/83/5 35/80/5 123/82/20
f 46/84/1 47/85/28 56/86/29
f 48/87/1 46/84/1 56/86/29
f 67/88/32 49/89/33 134/90/34
f 50/91/35 67/88/32 134/90/34
f 50/92/36 46/93/13 48/94/37
f 67/95/38 50/92/36 48/94/37
f 6/96/4 5/97/3 36/98/39
f 35/99/13 6/96/4 36/98/39
f 51/100/13 52/101/13 53/102/13
f 54/103/13 51/100/13 53/102/13
f 55/104/40 45/105/41 56/106/42
f 31/107/43 55/104/40 56/106/42
f 61/50/44 49/89/44 60/108/5
f 62/109/45 61/110/46 60/111/47
f 63/112/48 62/109/45 60/111/47
f 64/113/49 65/114/50 58/115/51
f 24/116/52 64/113/49 58/115/51
f 59/117/40 43/118/41 57/119/42
f 22/120/43 59/117/40 57/119/42
f 66/121/6 56/122/6 45/123/6
f 34/60/6 66/121/6 45/123/6
f 51/124/6 63/125/6 60/126/6
f 67/127/6 51/124/6 60/126/6
f 66/121/6 67/128/38 48/129/37
f 52/130/53 68/131/6 58/132/54
f 65/133/53 52/130/53 58/132/55
f 37/63/6 57/134/6 43/135/6
f 69/136/6 37/63/6 43/135/6
f 69/136/6 42/137/6 41/138/6
f 68/131/6 69/136/6 41/138/6
f 21/23/2 55/139/2 31/140/2
f 70/141/2 21/23/2 31/140/2
f 54/142/56 71/143/2 61/144/57
f 62/145/56 54/142/58 61/144/56
f 70/141/2 30/146/2 33/147/2
f 71/143/2 70/141/2 33/147/2
f 53/148/59 64/149/59 24/150/60
f 72/151/2 53/148/61 24/150/61
f 73/152/2 59/153/2 22/154/2
f 18/20/2 73/152/2 22/154/2
f 72/151/2 23/155/2 28/156/2
f 73/152/2 72/151/2 28/156/2
f 12/12/13 74/157/13 9/158/13
f 8/159/13 12/12/13 9/158/13
f 82/160/62 77/161/63 78/162/64
f 79/163/2 77/164/65 82/165/66
f 80/166/2 79/163/2 82/165/66
f 79/167/67 80/168/68 27/169/69
f 82/170/70 78/171/71 81/172/72
f 80/173/73 83/174/74 84/175/75
f 27/176/76 80/173/73 84/175/75
f 85/177/77 81/172/78 84/178/79
f 82/179/80 85/180/81 86/181/82
f 83/174/80 82/179/80 86/181/82
f 94/182/83 88/183/84 89/184/85
f 90/185/86 96/49/87 91/186/88
f 92/187/5 90/185/5 91/186/5
f 94/188/89 89/189/90 93/190/91
f 90/191/86 95/192/80 96/193/87
f 93/190/80 96/194/80 97/195/80
f 98/196/92 93/190/80 97/195/93
f 94/197/80 98/198/81 99/199/82
f 95/192/80 94/197/80 99/199/82
f 92/200/2 88/201/65 94/202/66
f 90/203/2 92/200/2 94/202/66
f 87/204/94 29/205/94 89/206/94
f 88/207/95 87/204/95 89/206/95
f 100/208/80 92/209/80 91/210/80
f 13/15/80 100/208/80 91/210/80
f 10/211/96 101/212/96 78/213/96
f 102/214/97 10/211/97 78/213/97
f 75/215/98 76/216/99 79/217/100
f 27/218/69 75/215/101 79/217/67
f 103/219/6 89/220/6 29/221/6
f 14/16/6 103/219/6 29/221/6
f 12/222/6 13/223/6 91/224/6
f 104/225/6 12/222/6 91/224/6
f 103/219/6 104/226/23 32/227/22
f 74/228/6 105/229/6 78/230/6
f 101/231/6 74/228/6 78/230/6
f 17/19/6 75/232/6 27/233/6
f 106/234/6 17/19/6 27/233/6
f 106/234/6 26/235/102 25/236/103
f 105/229/6 106/234/6 25/236/103
f 51/100/5 54/237/5 62/238/45
f 63/112/48 51/100/5 62/238/45
f 107/239/5 108/240/5 109/241/5
f 110/242/5 107/239/5 109/241/5
f 111/243/6 112/244/6 113/245/6
f 114/246/6 111/243/6 113/245/6
f 107/239/13 2/2/13 1/247/13
f 108/248/13 107/239/13 1/247/13
f 123/249/104 124/250/105 125/251/106
f 47/252/107 123/249/104 125/251/106
f 40/253/108 128/254/109 133/255/109
f 131/256/110 40/253/110 133/255/110
f 130/257/111 155/258/111 132/259/111
f 47/260/112 125/261/109 153/262/109
f 135/263/110 47/260/110 153/262/110
f 134/264/113 157/265/114 136/266/115
f 120/267/116 134/264/113 136/266/115
f 109/268/117 134/269/118 120/270/119
f 110/242/120 109/268/117 120/270/119
f 4/271/121 3/3/122 128/272/123
f 40/273/124 4/271/121 128/272/123
f 130/274/125 129/275/126 127/276/127
f 126/277/128 130/274/125 127/276/127
f 137/278/6 125/279/6 124/280/6
f 111/243/6 137/278/6 124/280/6
f 107/281/129 110/282/129 120/283/129
f 138/284/6 107/281/129 120/283/129
f 138/284/6 119/285/6 118/286/6
f 137/278/6 138/284/6 118/286/6
f 2/287/53 139/288/6 128/289/53
f 3/290/53 2/287/6 128/289/53
f 114/246/6 127/291/6 129/292/6
f 140/293/6 114/246/6 129/292/6
f 139/288/6 140/293/6 115/294/103
f 7/5/57 123/295/57 47/296/2
f 141/297/2 7/5/57 47/296/2
f 108/298/56 142/299/2 134/300/57
f 109/301/56 108/298/58 134/300/56
f 141/297/2 46/302/2 50/303/2
f 142/299/2 141/297/2 50/303/2
f 1/304/59 4/305/61 40/306/60
f 143/307/2 1/304/61 40/306/60
f 144/308/57 130/309/57 126/310/57
f 5/311/2 144/308/57 126/310/57
f 143/307/2 39/312/2 44/313/2
f 144/308/2 143/307/2 44/313/2
f 9/314/1 74/157/1 101/212/1
f 10/315/1 9/314/1 101/212/1
f 53/316/1 52/101/1 65/114/1
f 64/317/1 53/316/1 65/114/1
f 27/176/130 78/171/131 24/318/132
f 59/319/133 27/176/130 24/318/132
f 59/319/133 24/318/132 58/320/134
f 43/321/135 59/319/133 58/320/134
f 43/321/135 58/320/134 40/253/136
f 130/257/137 43/321/135 40/253/136
f 96/322/138 89/189/139 31/323/140
f 61/324/141 96/322/138 31/323/140
f 61/324/141 31/323/140 56/325/142
f 49/326/143 61/324/141 56/325/142
f 49/326/143 56/325/142 47/260/144
f 134/264/145 49/326/143 47/260/144
f 145/327/146 146/328/147 85/329/148
f 84/330/149 145/327/146 85/329/148
f 84/331/149 86/332/11 145/327/146
f 86/333/150 85/334/148 146/328/147
f 145/327/146 86/333/150 146/328/147
f 147/335/151 148/336/152 98/337/92
f 97/338/93 147/335/151 98/337/92
f 97/339/93 99/340/11 147/335/151
f 99/341/150 98/342/153 148/336/152
f 147/335/151 99/341/150 148/336/152
f 87/343/154 76/344/99 75/345/98
f 29/346/155 87/343/154 75/345/98
f 29/346/155 75/345/98 22/347/156
f 55/348/133 29/346/155 22/347/156
f 55/348/133 22/347/156 57/349/157
f 45/350/158 55/348/133 57/349/157
f 45/350/158 57/349/157 38/351/159
f 123/352/160 45/350/158 38/351/159
f 149/353/161 117/354/162 132/355/163
f 117/356/164 116/357/165 133/358/166
f 132/359/167 117/356/164 133/358/166
f 152/360/168 122/361/169 136/362/170
f 122/363/169 121/364/171 153/365/172
f 136/366/170 122/363/169 153/365/172
f 156/367/173 133/368/174 116/369/165
f 149/370/175 156/371/173 116/372/165
f 117/373/164 149/370/175 116/372/165
f 121/374/176 154/375/177 153/376/178
f 152/377/179 154/378/180 121/379/171
f 122/380/169 152/377/179 121/379/171
f 100/208/80 11/381/181 76/216/182
f 11/381/181 102/214/183 76/216/182
f 102/214/183 77/382/183 76/216/182
f 131/256/80 156/383/184 155/258/185
f 156/383/184 149/384/80 155/258/185
f 135/263/186 154/385/187 157/265/188
f 154/385/187 152/386/80 157/265/189
