# Blender v2.92.0 OBJ File: ''
# www.blender.org
mtllib gasStation.mtl
o gas_pump_red_Plane.001
v 4.923941 0.193194 -0.253723
v 2.102908 0.193194 -0.253723
v 4.923941 0.193194 0.638173
v 2.102908 0.193194 0.638173
v 2.253846 0.305610 0.562868
v 2.592386 4.406613 0.562867
v 2.592386 4.406613 -0.185459
v 2.253846 0.305609 -0.185458
v 2.592386 0.305609 -0.185458
v 2.592386 0.305610 0.562868
v 2.825832 0.305610 0.357977
v 2.825832 0.305610 0.019433
v 2.825832 1.751305 0.019433
v 3.532353 0.305610 0.357977
v 3.532353 0.305610 0.019433
v 3.532353 1.751305 0.019433
v 3.669540 0.305610 0.423359
v 3.669540 1.330891 0.423359
v 3.669540 0.305610 0.071314
v 3.669540 1.160079 0.071313
v 4.443336 0.305610 0.423359
v 4.443336 1.330891 0.423359
v 4.443336 0.305610 0.071314
v 4.443336 1.160079 0.071313
v 2.566709 3.975589 0.360622
v 4.618772 3.975589 0.360622
v 2.566709 3.975589 0.016786
v 4.618772 3.975589 0.016786
v 2.566709 3.124407 0.360622
v 4.618772 3.124407 0.360622
v 2.566709 3.124407 0.016786
v 4.618772 3.124407 0.016786
v 3.502589 1.721518 0.043344
v 3.400542 1.721518 0.334065
v 3.298494 1.721518 0.043344
v 3.400542 2.271197 0.043344
v 3.298494 2.271197 0.334065
v 3.502589 2.271197 0.334065
v 2.848686 1.689205 0.351615
v 3.071321 1.721518 0.043344
v 3.071321 1.721518 0.334065
v 3.275415 1.721518 0.334065
v 3.275415 1.721518 0.043344
v 3.492568 1.701625 0.340483
v 2.879158 1.393216 0.329987
v 3.479306 1.393216 0.343982
v 3.071321 2.271197 0.043344
v 3.071321 2.271197 0.334065
v 3.275415 2.271197 0.334065
v 3.275415 2.271197 0.043344
v 2.844465 1.721518 0.043344
v 2.844465 1.721518 0.334065
v 3.048560 1.721518 0.334065
v 3.048560 1.721518 0.043344
v 2.844465 2.271197 0.043344
v 2.844465 2.271197 0.334065
v 3.048560 2.271197 0.334065
v 3.048560 2.271197 0.043344
v 7.865429 4.477459 0.562867
v 7.865429 4.477812 -0.185459
v 2.592386 4.478213 -0.185459
v 2.592386 4.478213 0.562867
v 2.253846 4.406568 0.562867
v 2.253846 4.406568 -0.185459
v 2.910210 1.468640 0.436974
v 2.912198 1.469245 0.385083
v 2.986826 1.467541 0.404381
v 2.948802 1.611508 0.284859
v 2.914732 1.346513 0.398649
v 2.972080 1.346415 0.384499
v 2.974870 1.345842 0.428396
v 2.933098 0.856578 0.446556
v 2.933098 0.856578 0.474866
v 2.964666 0.855818 0.455758
v 2.948882 0.569401 0.301824
v 3.364375 1.468640 0.436974
v 3.366362 1.469245 0.385083
v 3.440990 1.467541 0.404381
v 3.402967 1.611507 0.284860
v 3.429035 1.345842 0.428396
v 3.368896 1.346513 0.398649
v 3.426244 1.346415 0.384499
v 3.387263 0.856578 0.446556
v 3.387263 0.856578 0.474866
v 3.418830 0.855818 0.455758
v 3.403046 0.569401 0.301824
v 3.207481 1.467541 0.404381
v 3.169458 1.611507 0.284860
v 3.132854 1.469245 0.385083
v 3.130866 1.468640 0.436974
v 3.195526 1.345842 0.428396
v 3.135387 1.346513 0.398649
v 3.192736 1.346415 0.384499
v 3.153754 0.856578 0.446556
v 3.153754 0.856578 0.474866
v 3.185321 0.855818 0.455758
v 3.169538 0.569401 0.301824
v 0.064500 4.477459 -0.185459
v 0.064500 4.477812 0.562867
v 2.253846 4.478168 0.562867
v 2.253846 4.478168 -0.185459
v 4.923941 0.353194 0.638173
v 4.923941 0.353194 -0.253723
v 2.102908 0.353194 -0.253723
v 2.102908 0.353194 0.638173
v -2.876987 0.193194 -0.253723
v -5.698020 0.193194 -0.253723
v -2.876987 0.193194 0.638173
v -5.698020 0.193194 0.638173
v -5.547083 0.305610 0.562868
v -5.208543 4.406613 0.562867
v -5.208543 4.406613 -0.185459
v -5.547083 0.305609 -0.185458
v -5.208543 0.305609 -0.185458
v -5.208543 0.305610 0.562868
v -4.975097 0.305610 0.357977
v -4.975097 0.305610 0.019433
v -4.975097 1.751305 0.019433
v -4.268576 0.305610 0.357977
v -4.268576 0.305610 0.019433
v -4.268576 1.751305 0.019433
v -4.131389 0.305610 0.423359
v -4.131389 1.330891 0.423359
v -4.131389 0.305610 0.071314
v -4.131389 1.160079 0.071313
v -3.357593 0.305610 0.423359
v -3.357593 1.330891 0.423359
v -3.357593 0.305610 0.071314
v -3.357593 1.160079 0.071313
v -5.234220 3.975589 0.360622
v -3.182157 3.975589 0.360622
v -5.234220 3.975589 0.016786
v -3.182157 3.975589 0.016786
v -5.234220 3.124407 0.360622
v -3.182157 3.124407 0.360622
v -5.234220 3.124407 0.016786
v -3.182157 3.124407 0.016786
v -4.298340 1.721518 0.043344
v -4.298340 1.721518 0.334065
v -4.502435 1.721518 0.334065
v -4.502435 1.721518 0.043344
v -4.502435 2.271197 0.043344
v -4.502435 2.271197 0.334065
v -4.298340 2.271197 0.334065
v -4.298340 2.271197 0.043344
v -4.952243 1.689205 0.351615
v -4.729608 1.721518 0.043344
v -4.729608 1.721518 0.334065
v -4.525514 1.721518 0.334065
v -4.525514 1.721518 0.043344
v -4.308361 1.701625 0.340483
v -4.921772 1.393216 0.329987
v -4.321623 1.393216 0.343982
v -4.729608 2.271197 0.043344
v -4.729608 2.271197 0.334065
v -4.525514 2.271197 0.334065
v -4.525514 2.271197 0.043344
v -4.956463 1.721518 0.043344
v -4.956463 1.721518 0.334065
v -4.752369 1.721518 0.334065
v -4.752369 1.721518 0.043344
v -4.956463 2.271197 0.043344
v -4.956463 2.271197 0.334065
v -4.752369 2.271197 0.334065
v -4.752369 2.271197 0.043344
v 0.064501 4.477459 0.562867
v 0.064501 4.477812 -0.185459
v -5.208543 4.478213 -0.185459
v -5.208543 4.478213 0.562867
v -5.547083 4.406568 0.562867
v -5.547083 4.406568 -0.185459
v -4.890718 1.468640 0.436974
v -4.888731 1.469245 0.385083
v -4.814103 1.467541 0.404381
v -4.852126 1.611507 0.284860
v -4.886197 1.346513 0.398649
v -4.828849 1.346415 0.384499
v -4.826059 1.345842 0.428396
v -4.867830 0.856578 0.446556
v -4.867830 0.856578 0.474866
v -4.836263 0.855818 0.455758
v -4.852047 0.569401 0.301824
v -4.436554 1.468640 0.436974
v -4.434566 1.469245 0.385083
v -4.359939 1.467541 0.404381
v -4.397962 1.611507 0.284860
v -4.371894 1.345842 0.428396
v -4.432033 1.346513 0.398649
v -4.374684 1.346415 0.384499
v -4.413666 0.856578 0.446556
v -4.413666 0.856578 0.474866
v -4.382098 0.855818 0.455758
v -4.397882 0.569401 0.301824
v -4.593448 1.467541 0.404381
v -4.631471 1.611507 0.284860
v -4.668075 1.469245 0.385083
v -4.670063 1.468640 0.436974
v -4.605403 1.345842 0.428396
v -4.665542 1.346513 0.398649
v -4.608193 1.346415 0.384499
v -4.647175 0.856578 0.446556
v -4.647175 0.856578 0.474866
v -4.615607 0.855818 0.455758
v -4.631391 0.569401 0.301824
v -7.736429 4.477459 -0.185459
v -7.736428 4.477812 0.562867
v -5.547083 4.478168 0.562867
v -5.547083 4.478168 -0.185459
v -2.876987 0.353194 0.638173
v -2.876987 0.353194 -0.253723
v -5.698020 0.353194 -0.253723
v -5.698020 0.353194 0.638173
vt 0.960036 0.623220
vt 0.946601 0.386441
vt 0.960036 0.386441
vt 0.958707 0.008393
vt 0.972140 0.245173
vt 0.958707 0.245173
vt 0.853625 0.008393
vt 0.790748 0.336799
vt 0.790748 0.008396
vt 0.602320 0.927635
vt 0.588876 0.852779
vt 0.602320 0.852778
vt 0.756315 0.841150
vt 0.769759 0.916008
vt 0.756315 0.916007
vt 0.172051 0.974118
vt 0.172051 0.852778
vt 0.200496 0.974119
vt 0.619125 0.852778
vt 0.647565 0.912079
vt 0.619125 0.912079
vt 0.263687 0.852778
vt 0.293266 0.938833
vt 0.263687 0.938832
vt 0.090227 0.852778
vt 0.155246 0.924447
vt 0.090227 0.924447
vt 0.246881 0.852778
vt 0.217302 0.938833
vt 0.217302 0.852779
vt 0.395249 0.007010
vt 0.655325 0.350933
vt 0.395249 0.350933
vt 0.694259 0.917725
vt 0.664370 0.852778
vt 0.694259 0.852778
vt 0.928174 0.698774
vt 0.957058 0.871011
vt 0.928174 0.871011
vt 0.174272 0.486761
vt 0.317216 0.831235
vt 0.174272 0.831235
vt 0.882478 0.698774
vt 0.911369 0.871011
vt 0.882478 0.871011
vt 0.015260 0.487798
vt 0.158178 0.832272
vt 0.015260 0.832272
vt 0.338962 0.924219
vt 0.310072 0.852779
vt 0.338962 0.852778
vt 0.110972 0.345217
vt 0.196718 0.114735
vt 0.196718 0.345217
vt 0.548960 0.966042
vt 0.557534 0.919937
vt 0.566109 0.966042
vt 0.955176 0.664402
vt 0.946601 0.640007
vt 0.963750 0.640007
vt 0.532154 0.852778
vt 0.507727 0.898915
vt 0.507727 0.852779
vt 0.384030 0.915702
vt 0.408457 0.961838
vt 0.384030 0.961837
vt 0.010536 0.344240
vt 0.096282 0.113759
vt 0.096282 0.344240
vt 0.882478 0.887798
vt 0.906905 0.933935
vt 0.882478 0.933933
vt 0.739509 0.962490
vt 0.711064 0.841151
vt 0.739509 0.841150
vt 0.382888 0.829710
vt 0.391279 0.479071
vt 0.396260 0.556088
vt 0.756315 0.978899
vt 0.773464 0.932795
vt 0.773464 0.978899
vt 0.602320 0.968818
vt 0.585171 0.944423
vt 0.602320 0.944423
vt 0.490922 0.852778
vt 0.466495 0.898915
vt 0.466495 0.852779
vt 0.870430 0.386441
vt 0.929796 0.507700
vt 0.870430 0.507700
vt 0.572071 0.852778
vt 0.548960 0.903151
vt 0.548960 0.852778
vt 0.384030 0.852778
vt 0.408457 0.898915
vt 0.384030 0.898914
vt 0.619125 0.974970
vt 0.636274 0.928865
vt 0.636274 0.974970
vt 0.152744 0.965629
vt 0.135595 0.941234
vt 0.152744 0.941234
vt 0.449689 0.852778
vt 0.425262 0.898915
vt 0.425262 0.852779
vt 0.547544 0.556088
vt 0.552225 0.479577
vt 0.560986 0.829710
vt 0.711064 0.450979
vt 0.773943 0.008393
vt 0.773943 0.450979
vt 0.336946 0.393406
vt 0.336943 0.364991
vt 0.342955 0.364991
vt 0.523731 0.978509
vt 0.529747 0.915702
vt 0.529747 0.978509
vt 0.946601 0.623220
vt 0.873905 0.680868
vt 0.870831 0.667283
vt 0.873310 0.664212
vt 0.739424 0.979278
vt 0.736570 0.987189
vt 0.733703 0.979278
vt 0.833746 0.962285
vt 0.841543 0.952340
vt 0.841543 0.962285
vt 0.934241 0.928662
vt 0.931588 0.887798
vt 0.934241 0.887798
vt 0.065403 0.955545
vt 0.057606 0.965488
vt 0.057606 0.955545
vt 0.976226 0.823074
vt 0.985574 0.848004
vt 0.973863 0.822802
vt 0.932911 0.954428
vt 0.931588 0.928662
vt 0.989965 0.343588
vt 0.988642 0.368114
vt 0.987313 0.343588
vt 0.008403 0.990188
vt 0.011257 0.982277
vt 0.014123 0.990188
vt 0.040801 0.955545
vt 0.033004 0.965490
vt 0.033004 0.955545
vt 0.979494 0.510722
vt 0.976841 0.469858
vt 0.979494 0.469858
vt 0.225098 0.955620
vt 0.217302 0.965563
vt 0.217302 0.955620
vt 0.978164 0.536488
vt 0.976841 0.510722
vt 0.991597 0.049287
vt 0.990274 0.073813
vt 0.988945 0.049287
vt 0.976226 0.739328
vt 0.985574 0.764258
vt 0.973863 0.739057
vt 0.895404 0.680868
vt 0.892330 0.667283
vt 0.894809 0.664212
vt 0.916903 0.680868
vt 0.913830 0.667283
vt 0.916309 0.664212
vt 0.853624 0.681987
vt 0.790748 0.353586
vt 0.853624 0.353590
vt 0.030928 0.990188
vt 0.033783 0.982277
vt 0.036649 0.990188
vt 0.016199 0.955545
vt 0.008403 0.965490
vt 0.008403 0.955545
vt 0.979494 0.427305
vt 0.976841 0.386441
vt 0.979494 0.386441
vt 0.249700 0.955620
vt 0.241903 0.965563
vt 0.241903 0.955620
vt 0.497476 0.956256
vt 0.506824 0.981185
vt 0.495113 0.955984
vt 0.978164 0.453071
vt 0.976841 0.427305
vt 0.979494 0.594168
vt 0.978171 0.618694
vt 0.976841 0.594168
vt 0.361208 0.915586
vt 0.367225 0.852778
vt 0.367225 0.915586
vt 0.359767 0.364991
vt 0.359797 0.008393
vt 0.365778 0.364991
vt 0.773943 0.467765
vt 0.711064 0.824363
vt 0.711064 0.467765
vt 0.342899 0.008393
vt 0.694259 0.393406
vt 0.365775 0.393406
vt 0.972140 0.008393
vt 0.865672 0.935553
vt 0.790748 0.698774
vt 0.865672 0.698774
vt 0.468090 0.942195
vt 0.478308 0.982389
vt 0.475945 0.982661
vt 0.853625 0.336796
vt 0.588876 0.927636
vt 0.769759 0.841150
vt 0.200496 0.852779
vt 0.647565 0.852778
vt 0.293266 0.867116
vt 0.155246 0.852778
vt 0.246881 0.924495
vt 0.655325 0.007010
vt 0.664370 0.917725
vt 0.957058 0.698774
vt 0.317216 0.486761
vt 0.911369 0.698774
vt 0.158178 0.487798
vt 0.310072 0.924221
vt 0.110972 0.114735
vt 0.532154 0.898914
vt 0.408457 0.915703
vt 0.256701 0.345028
vt 0.213828 0.114547
vt 0.299575 0.114546
vt 0.010536 0.113759
vt 0.906905 0.887799
vt 0.711064 0.962491
vt 0.756315 0.932795
vt 0.585171 0.968818
vt 0.490922 0.898914
vt 0.929796 0.386441
vt 0.572071 0.903151
vt 0.408457 0.852779
vt 0.619125 0.928865
vt 0.135595 0.965629
vt 0.449689 0.898914
vt 0.711064 0.008393
vt 0.008403 0.393402
vt 0.008403 0.364988
vt 0.342958 0.393406
vt 0.523731 0.915702
vt 0.858348 0.952340
vt 0.864069 0.952340
vt 0.861203 0.963946
vt 0.833746 0.952340
vt 0.977084 0.984205
vt 0.973863 0.974254
vt 0.979699 0.974254
vt 0.928405 0.971215
vt 0.934241 0.971215
vt 0.931271 0.981167
vt 0.065403 0.965488
vt 0.988639 0.302695
vt 0.983313 0.782520
vt 0.985676 0.782792
vt 0.266505 0.955620
vt 0.272226 0.955620
vt 0.269360 0.967226
vt 0.040801 0.965490
vt 0.954266 0.977344
vt 0.951046 0.967393
vt 0.956882 0.967393
vt 0.987215 0.272754
vt 0.981379 0.272754
vt 0.984349 0.262802
vt 0.225098 0.965563
vt 0.990271 0.008393
vt 0.970507 0.369382
vt 0.968144 0.369654
vt 0.960289 0.329188
vt 0.439471 0.942195
vt 0.449689 0.982389
vt 0.447326 0.982661
vt 0.983313 0.698774
vt 0.985676 0.699046
vt 0.790748 0.681984
vt 0.979584 0.957467
vt 0.973863 0.957467
vt 0.976729 0.945861
vt 0.016199 0.965490
vt 0.983171 0.640007
vt 0.986391 0.649959
vt 0.980556 0.649959
vt 0.980556 0.666746
vt 0.986391 0.666746
vt 0.983422 0.676697
vt 0.249700 0.965563
vt 0.978168 0.553275
vt 0.504563 0.915702
vt 0.506926 0.915973
vt 0.361208 0.852778
vt 0.359827 0.835991
vt 0.359764 0.393406
vt 0.342920 0.835991
vt 0.773943 0.824363
vt 0.694259 0.364991
vt 0.790748 0.935553
vt 0.960036 0.623220
vt 0.946601 0.386441
vt 0.960036 0.386441
vt 0.958707 0.008393
vt 0.972140 0.245173
vt 0.958707 0.245173
vt 0.853625 0.008393
vt 0.790748 0.336799
vt 0.790748 0.008396
vt 0.602320 0.927635
vt 0.588876 0.852779
vt 0.602320 0.852778
vt 0.756315 0.841150
vt 0.769759 0.916008
vt 0.756315 0.916007
vt 0.172051 0.974118
vt 0.172051 0.852778
vt 0.200496 0.974119
vt 0.619125 0.852778
vt 0.647565 0.912079
vt 0.619125 0.912079
vt 0.263687 0.852778
vt 0.293266 0.938833
vt 0.263687 0.938832
vt 0.090227 0.852778
vt 0.155246 0.924447
vt 0.090227 0.924447
vt 0.246881 0.852778
vt 0.217302 0.938833
vt 0.217302 0.852779
vt 0.395249 0.007010
vt 0.655325 0.350933
vt 0.395249 0.350933
vt 0.694259 0.917725
vt 0.664370 0.852778
vt 0.694259 0.852778
vt 0.928174 0.698774
vt 0.957058 0.871011
vt 0.928174 0.871011
vt 0.174272 0.486761
vt 0.317216 0.831235
vt 0.174272 0.831235
vt 0.882478 0.698774
vt 0.911369 0.871011
vt 0.882478 0.871011
vt 0.015260 0.487798
vt 0.158178 0.832272
vt 0.015260 0.832272
vt 0.338962 0.924219
vt 0.310072 0.852779
vt 0.338962 0.852778
vt 0.110972 0.345217
vt 0.196718 0.114735
vt 0.196718 0.345217
vt 0.548960 0.966042
vt 0.566109 0.919937
vt 0.566109 0.966042
vt 0.963750 0.664402
vt 0.946601 0.640007
vt 0.963750 0.640007
vt 0.532154 0.852778
vt 0.507727 0.898915
vt 0.507727 0.852779
vt 0.384030 0.915702
vt 0.408457 0.961838
vt 0.384030 0.961837
vt 0.213828 0.345028
vt 0.299575 0.114546
vt 0.299575 0.345028
vt 0.010536 0.344240
vt 0.096282 0.113759
vt 0.096282 0.344240
vt 0.882478 0.887798
vt 0.906905 0.933935
vt 0.882478 0.933933
vt 0.739509 0.962490
vt 0.711064 0.841151
vt 0.739509 0.841150
vt 0.382888 0.829710
vt 0.391279 0.479071
vt 0.396260 0.556088
vt 0.756315 0.978899
vt 0.773464 0.932795
vt 0.773464 0.978899
vt 0.602320 0.968818
vt 0.585171 0.944423
vt 0.602320 0.944423
vt 0.490922 0.852778
vt 0.466495 0.898915
vt 0.466495 0.852779
vt 0.870430 0.386441
vt 0.929796 0.507700
vt 0.870430 0.507700
vt 0.572071 0.852778
vt 0.548960 0.903151
vt 0.548960 0.852778
vt 0.384030 0.852778
vt 0.408457 0.898915
vt 0.384030 0.898914
vt 0.619125 0.974970
vt 0.636274 0.928865
vt 0.636274 0.974970
vt 0.152744 0.965629
vt 0.135595 0.941234
vt 0.152744 0.941234
vt 0.449689 0.852778
vt 0.425262 0.898915
vt 0.425262 0.852779
vt 0.547544 0.556088
vt 0.552225 0.479577
vt 0.560986 0.829710
vt 0.711064 0.450979
vt 0.773943 0.008393
vt 0.773943 0.450979
vt 0.336946 0.393406
vt 0.336943 0.364991
vt 0.342955 0.364991
vt 0.523731 0.978509
vt 0.529747 0.915702
vt 0.529747 0.978509
vt 0.946601 0.623220
vt 0.873905 0.680868
vt 0.870831 0.667283
vt 0.873310 0.664212
vt 0.739424 0.979278
vt 0.736570 0.987189
vt 0.733703 0.979278
vt 0.833746 0.962285
vt 0.841543 0.952340
vt 0.841543 0.962285
vt 0.934241 0.928662
vt 0.931588 0.887798
vt 0.934241 0.887798
vt 0.065403 0.955545
vt 0.057606 0.965488
vt 0.057606 0.955545
vt 0.976226 0.823074
vt 0.985574 0.848004
vt 0.973863 0.822802
vt 0.932911 0.954428
vt 0.931588 0.928662
vt 0.989965 0.343588
vt 0.988642 0.368114
vt 0.987313 0.343588
vt 0.008403 0.990188
vt 0.011257 0.982277
vt 0.014123 0.990188
vt 0.040801 0.955545
vt 0.033004 0.965490
vt 0.033004 0.955545
vt 0.979494 0.510722
vt 0.976841 0.469858
vt 0.979494 0.469858
vt 0.225098 0.955620
vt 0.217302 0.965563
vt 0.217302 0.955620
vt 0.978164 0.536488
vt 0.976841 0.510722
vt 0.991597 0.049287
vt 0.990274 0.073813
vt 0.988945 0.049287
vt 0.976226 0.739328
vt 0.985574 0.764258
vt 0.973863 0.739057
vt 0.895404 0.680868
vt 0.892330 0.667283
vt 0.894809 0.664212
vt 0.916903 0.680868
vt 0.913830 0.667283
vt 0.916309 0.664212
vt 0.853624 0.681987
vt 0.790748 0.353586
vt 0.853624 0.353590
vt 0.030928 0.990188
vt 0.033783 0.982277
vt 0.036649 0.990188
vt 0.016199 0.955545
vt 0.008403 0.965490
vt 0.008403 0.955545
vt 0.979494 0.427305
vt 0.976841 0.386441
vt 0.979494 0.386441
vt 0.249700 0.955620
vt 0.241903 0.965563
vt 0.241903 0.955620
vt 0.497476 0.956256
vt 0.506824 0.981185
vt 0.495113 0.955984
vt 0.978164 0.453071
vt 0.976841 0.427305
vt 0.979494 0.594168
vt 0.978171 0.618694
vt 0.976841 0.594168
vt 0.361208 0.915586
vt 0.367225 0.852778
vt 0.367225 0.915586
vt 0.359767 0.364991
vt 0.359797 0.008393
vt 0.365778 0.364991
vt 0.773943 0.467765
vt 0.711064 0.824363
vt 0.711064 0.467765
vt 0.342899 0.008393
vt 0.694259 0.393406
vt 0.365775 0.393406
vt 0.972140 0.008393
vt 0.865672 0.935553
vt 0.790748 0.698774
vt 0.865672 0.698774
vt 0.468090 0.942195
vt 0.478308 0.982389
vt 0.475945 0.982661
vt 0.853625 0.336796
vt 0.588876 0.927636
vt 0.769759 0.841150
vt 0.200496 0.852779
vt 0.647565 0.852778
vt 0.293266 0.867116
vt 0.155246 0.852778
vt 0.246881 0.924495
vt 0.655325 0.007010
vt 0.664370 0.917725
vt 0.957058 0.698774
vt 0.317216 0.486761
vt 0.911369 0.698774
vt 0.158178 0.487798
vt 0.310072 0.924221
vt 0.110972 0.114735
vt 0.548960 0.919937
vt 0.946601 0.664402
vt 0.532154 0.898914
vt 0.408457 0.915703
vt 0.213828 0.114547
vt 0.010536 0.113759
vt 0.906905 0.887799
vt 0.711064 0.962491
vt 0.756315 0.932795
vt 0.585171 0.968818
vt 0.490922 0.898914
vt 0.929796 0.386441
vt 0.572071 0.903151
vt 0.408457 0.852779
vt 0.619125 0.928865
vt 0.135595 0.965629
vt 0.449689 0.898914
vt 0.711064 0.008393
vt 0.008403 0.393402
vt 0.008403 0.364988
vt 0.342958 0.393406
vt 0.523731 0.915702
vt 0.858348 0.952340
vt 0.864069 0.952340
vt 0.861203 0.963946
vt 0.833746 0.952340
vt 0.977084 0.984205
vt 0.973863 0.974254
vt 0.979699 0.974254
vt 0.928405 0.971215
vt 0.934241 0.971215
vt 0.931271 0.981167
vt 0.065403 0.965488
vt 0.988639 0.302695
vt 0.983313 0.782520
vt 0.985676 0.782792
vt 0.266505 0.955620
vt 0.272226 0.955620
vt 0.269360 0.967226
vt 0.040801 0.965490
vt 0.954266 0.977344
vt 0.951046 0.967393
vt 0.956882 0.967393
vt 0.987215 0.272754
vt 0.981379 0.272754
vt 0.984349 0.262802
vt 0.225098 0.965563
vt 0.990271 0.008393
vt 0.970507 0.369382
vt 0.968144 0.369654
vt 0.960289 0.329188
vt 0.439471 0.942195
vt 0.449689 0.982389
vt 0.447326 0.982661
vt 0.983313 0.698774
vt 0.985676 0.699046
vt 0.790748 0.681984
vt 0.979584 0.957467
vt 0.973863 0.957467
vt 0.976729 0.945861
vt 0.016199 0.965490
vt 0.983171 0.640007
vt 0.986391 0.649959
vt 0.980556 0.649959
vt 0.980556 0.666746
vt 0.986391 0.666746
vt 0.983422 0.676697
vt 0.249700 0.965563
vt 0.978168 0.553275
vt 0.504563 0.915702
vt 0.506926 0.915973
vt 0.361208 0.852778
vt 0.359827 0.835991
vt 0.359764 0.393406
vt 0.342920 0.835991
vt 0.773943 0.824363
vt 0.694259 0.364991
vt 0.790748 0.935553
vn 0.0000 0.0000 -1.0000
vn 0.0000 0.0000 1.0000
vn 1.0000 0.0000 0.0000
vn -1.0000 0.0000 0.0000
vn -0.6767 0.7155 0.1733
vn -0.9998 0.0140 0.0103
vn -0.5575 0.4947 0.6667
vn -0.0100 0.6692 0.7430
vn 0.0000 0.8997 -0.4365
vn 0.0000 1.0000 0.0000
vn 0.0000 -1.0000 0.0000
vn -0.7987 0.5324 -0.2804
vn -0.7468 0.6581 -0.0959
vn 0.9294 -0.1725 0.3262
vn -0.9896 -0.0672 0.1270
vn 0.9939 0.0250 0.1070
vn 0.9998 0.0042 0.0179
vn -0.0166 0.0121 0.9998
vn -0.0179 0.0146 0.9997
vn 0.2653 -0.0086 0.9641
vn -0.7074 0.0237 0.7064
vn 0.0134 -0.9999 0.0000
vn 0.0630 0.7583 -0.6489
vn -0.7174 -0.1492 -0.6805
vn -0.5366 0.3237 0.7793
vn 0.0631 0.7583 -0.6489
vn 0.2819 -0.2982 -0.9119
vn -0.1716 -0.0078 -0.9851
vn 0.4538 0.0458 0.8899
vn 0.5964 -0.0683 0.7997
vn -0.5495 -0.0827 0.8314
vn 0.3581 0.4327 0.8273
vn -0.8997 0.1469 -0.4111
vn 0.0158 -0.8770 -0.4802
vn -0.8504 -0.2972 0.4342
vn 0.0156 -0.8771 -0.4800
vn 0.9803 -0.1327 0.1464
vn 0.5965 -0.0683 0.7997
vn 0.3582 0.4327 0.8273
vn 0.0157 -0.8771 -0.4800
vn -0.0324 -0.9995 0.0000
vn 0.9907 -0.1188 -0.0661
vn 0.5443 -0.0120 -0.8388
vn 0.0000 0.9882 0.1529
vn 0.9294 0.1725 -0.3262
vn -0.9294 -0.1725 0.3262
vn 0.9914 0.0299 0.1275
vn 0.0000 0.0129 0.9999
vn 0.0135 -0.9999 -0.0005
vn 0.2738 -0.1423 -0.9512
vn -0.0325 -0.9995 0.0005
vn 0.0156 -0.8772 -0.4799
vn -0.8504 -0.2972 0.4343
vn 0.0157 -0.8771 -0.4801
g gas_pump_red_Plane.001_gas_pump_red
usemtl gas_pump_red
s 1
f 2/1/1 103/2/1 1/3/1
f 3/4/2 105/5/2 4/6/2
f 9/7/3 6/8/3 10/9/3
f 4/10/4 104/11/4 2/12/4
f 1/13/3 102/14/3 3/15/3
f 13/16/5 12/17/6 39/18/7
f 44/19/8 13/20/5 39/21/7
f 18/22/4 19/23/4 17/24/4
f 20/25/1 23/26/1 19/27/1
f 23/28/3 22/29/3 21/30/3
f 22/31/2 17/32/2 21/33/2
f 20/34/9 22/35/9 24/36/9
f 26/37/10 27/38/10 25/39/10
f 28/40/1 31/41/1 27/42/1
f 32/43/11 29/44/11 31/45/11
f 30/46/2 25/47/2 29/48/2
f 28/49/3 30/50/3 32/51/3
f 53/52/2 56/53/2 52/54/2
f 35/55/1 36/56/1 33/57/1
f 36/58/12 37/59/13 38/60/10
f 33/61/14 38/62/14 34/63/14
f 35/64/15 37/65/13 36/66/12
f 42/67/2 48/68/2 41/69/2
f 40/70/4 48/71/4 47/72/4
f 16/73/16 14/74/17 15/75/3
f 14/76/18 44/77/8 46/78/19
f 40/79/1 50/80/1 43/81/1
f 50/82/10 48/83/10 49/84/10
f 43/85/3 49/86/3 42/87/3
f 13/88/1 15/89/1 12/90/1
f 44/91/8 45/92/20 46/93/19
f 51/94/4 56/95/4 55/96/4
f 51/97/1 58/98/1 54/99/1
f 58/100/10 56/101/10 57/102/10
f 54/103/3 57/104/3 53/105/3
f 45/106/20 39/107/7 11/108/21
f 7/109/22 59/110/22 6/111/22
f 7/112/1 64/113/1 101/114/1
f 62/115/4 7/116/4 6/117/4
f 2/1/1 104/118/1 103/2/1
f 79/119/23 77/120/24 76/121/25
f 66/122/24 68/123/26 67/124/27
f 67/125/27 69/126/28 66/127/24
f 73/128/29 71/129/30 69/130/31
f 65/131/25 71/132/30 67/133/32
f 83/134/33 86/135/34 84/136/35
f 73/128/35 75/137/36 74/138/37
f 74/139/37 75/140/36 72/141/33
f 77/142/24 79/143/23 78/144/27
f 78/145/27 81/146/28 77/147/24
f 84/148/29 80/149/38 81/150/31
f 76/151/25 80/152/38 78/153/32
f 84/148/35 86/154/34 85/155/37
f 85/156/37 86/157/34 83/158/33
f 72/159/33 75/160/36 73/161/35
f 68/162/26 66/163/24 65/164/25
f 88/165/26 89/166/24 90/167/25
f 63/168/4 8/169/4 5/170/4
f 89/171/24 88/172/26 87/173/27
f 87/174/27 92/175/28 89/176/24
f 95/177/29 91/178/30 92/179/31
f 90/180/25 91/181/30 87/182/39
f 94/183/33 97/184/40 95/185/35
f 95/177/35 97/186/40 96/187/37
f 96/188/37 97/189/40 94/190/33
f 101/191/3 63/192/3 64/193/3
f 100/194/2 99/195/2 63/196/2
f 63/197/41 98/198/41 64/199/41
f 64/113/1 98/200/1 101/114/1
f 63/196/2 10/201/2 6/202/2
f 3/4/2 102/203/2 105/5/2
f 104/204/10 102/205/10 103/206/10
f 96/207/42 93/208/43 91/209/30
f 9/7/3 7/210/3 6/8/3
f 4/10/4 105/211/4 104/11/4
f 1/13/3 103/212/3 102/14/3
f 11/213/21 39/18/7 12/17/6
f 44/19/8 16/214/44 13/20/5
f 18/22/4 20/215/4 19/23/4
f 20/25/1 24/216/1 23/26/1
f 23/28/3 24/217/3 22/29/3
f 22/31/2 18/218/2 17/32/2
f 20/34/9 18/219/9 22/35/9
f 26/37/10 28/220/10 27/38/10
f 28/40/1 32/221/1 31/41/1
f 32/43/11 30/222/11 29/44/11
f 30/46/2 26/223/2 25/47/2
f 28/49/3 26/224/3 30/50/3
f 53/52/2 57/225/2 56/53/2
f 33/61/45 36/226/45 38/62/45
f 35/64/15 34/227/46 37/65/13
f 34/228/2 38/229/2 37/230/2
f 42/67/2 49/231/2 48/68/2
f 40/70/4 41/232/4 48/71/4
f 16/73/16 44/233/47 14/74/17
f 46/78/19 45/106/20 11/108/21
f 46/78/19 11/108/21 14/76/48
f 40/79/1 47/234/1 50/80/1
f 50/82/10 47/235/10 48/83/10
f 43/85/3 50/236/3 49/86/3
f 13/88/1 16/237/1 15/89/1
f 44/91/8 39/238/7 45/92/20
f 51/94/4 52/239/4 56/95/4
f 51/97/1 55/240/1 58/98/1
f 58/100/10 55/241/10 56/101/10
f 54/103/3 58/242/3 57/104/3
f 7/109/49 60/243/49 59/110/49
f 7/112/1 9/244/1 64/113/1
f 8/245/1 64/113/1 9/244/1
f 101/114/1 61/246/1 7/112/1
f 62/115/4 61/247/4 7/116/4
f 65/248/25 67/249/32 68/250/26
f 67/125/27 70/251/43 69/126/28
f 73/128/29 74/138/42 71/129/30
f 67/252/27 71/253/30 70/254/43
f 65/255/25 66/256/24 69/257/31
f 65/131/25 69/258/31 71/132/30
f 74/139/42 72/141/50 70/259/43
f 81/260/28 82/261/43 83/134/33
f 84/136/35 81/260/28 83/134/33
f 76/262/25 78/263/32 79/264/23
f 78/145/27 82/265/43 81/146/28
f 84/148/29 85/155/42 80/149/38
f 78/266/27 80/267/38 82/268/43
f 76/269/25 77/270/24 81/271/31
f 76/151/25 81/272/31 80/152/38
f 85/156/42 83/158/50 82/273/43
f 82/274/43 80/275/38 85/276/42
f 74/277/42 70/278/43 71/279/30
f 69/280/28 70/281/43 72/159/33
f 73/161/35 69/280/28 72/159/33
f 63/168/4 64/282/4 8/169/4
f 90/283/25 87/284/39 88/285/26
f 87/174/27 93/286/43 92/175/28
f 95/177/29 96/187/42 91/178/30
f 87/287/27 91/288/30 93/289/43
f 90/290/25 89/291/24 92/292/31
f 90/180/25 92/293/31 91/181/30
f 96/188/42 94/190/50 93/294/43
f 92/295/28 93/296/43 94/183/33
f 95/185/35 92/295/28 94/183/33
f 101/191/3 100/297/3 63/192/3
f 59/298/2 62/299/2 6/202/2
f 7/112/1 61/246/1 60/300/1
f 63/197/51 99/301/51 98/198/51
f 62/299/2 100/194/2 6/202/2
f 63/196/2 5/302/2 10/201/2
f 6/202/2 100/194/2 63/196/2
f 104/204/10 105/303/10 102/205/10
f 107/304/1 210/305/1 106/306/1
f 108/307/2 212/308/2 109/309/2
f 114/310/3 111/311/3 115/312/3
f 109/313/4 211/314/4 107/315/4
f 106/316/3 209/317/3 108/318/3
f 118/319/5 117/320/6 146/321/7
f 151/322/8 118/323/5 146/324/7
f 123/325/4 124/326/4 122/327/4
f 125/328/1 128/329/1 124/330/1
f 128/331/3 127/332/3 126/333/3
f 127/334/2 122/335/2 126/336/2
f 125/337/9 127/338/9 129/339/9
f 131/340/10 132/341/10 130/342/10
f 133/343/1 136/344/1 132/345/1
f 137/346/11 134/347/11 136/348/11
f 135/349/2 130/350/2 134/351/2
f 133/352/3 135/353/3 137/354/3
f 160/355/2 163/356/2 159/357/2
f 141/358/1 145/359/1 138/360/1
f 145/361/10 143/362/10 144/363/10
f 138/364/3 144/365/3 139/366/3
f 141/367/4 143/368/4 142/369/4
f 139/370/2 143/371/2 140/372/2
f 149/373/2 155/374/2 148/375/2
f 147/376/4 155/377/4 154/378/4
f 121/379/16 119/380/17 120/381/3
f 119/382/18 151/383/8 153/384/19
f 147/385/1 157/386/1 150/387/1
f 157/388/10 155/389/10 156/390/10
f 150/391/3 156/392/3 149/393/3
f 118/394/1 120/395/1 117/396/1
f 151/397/8 152/398/20 153/399/19
f 158/400/4 163/401/4 162/402/4
f 158/403/1 165/404/1 161/405/1
f 165/406/10 163/407/10 164/408/10
f 161/409/3 164/410/3 160/411/3
f 152/412/20 146/413/7 116/414/21
f 112/415/22 166/416/22 111/417/22
f 112/418/1 171/419/1 208/420/1
f 169/421/4 112/422/4 111/423/4
f 107/304/1 211/424/1 210/305/1
f 186/425/23 184/426/24 183/427/25
f 173/428/24 175/429/26 174/430/27
f 174/431/27 176/432/28 173/433/24
f 180/434/29 178/435/30 176/436/31
f 172/437/25 178/438/30 174/439/32
f 190/440/33 193/441/52 191/442/35
f 180/434/53 182/443/54 181/444/37
f 181/445/37 182/446/54 179/447/33
f 184/448/24 186/449/23 185/450/27
f 185/451/27 188/452/28 184/453/24
f 191/454/29 187/455/30 188/456/31
f 183/457/25 187/458/30 185/459/32
f 191/454/35 193/460/52 192/461/37
f 192/462/37 193/463/52 190/464/33
f 179/465/33 182/466/54 180/467/53
f 175/468/26 173/469/24 172/470/25
f 195/471/26 196/472/24 197/473/25
f 170/474/4 113/475/4 110/476/4
f 196/477/24 195/478/26 194/479/27
f 194/480/27 199/481/28 196/482/24
f 202/483/29 198/484/30 199/485/31
f 197/486/25 198/487/30 194/488/32
f 201/489/33 204/490/36 202/491/35
f 202/483/35 204/492/36 203/493/37
f 203/494/37 204/495/36 201/496/33
f 208/497/3 170/498/3 171/499/3
f 207/500/2 206/501/2 170/502/2
f 170/503/41 205/504/41 171/505/41
f 171/419/1 205/506/1 208/420/1
f 170/502/2 115/507/2 111/508/2
f 108/307/2 209/509/2 212/308/2
f 211/510/10 209/511/10 210/512/10
f 203/513/42 200/514/43 198/515/30
f 114/310/3 112/516/3 111/311/3
f 109/313/4 212/517/4 211/314/4
f 106/316/3 210/518/3 209/317/3
f 116/519/21 146/321/7 117/320/6
f 151/322/8 121/520/44 118/323/5
f 123/325/4 125/521/4 124/326/4
f 125/328/1 129/522/1 128/329/1
f 128/331/3 129/523/3 127/332/3
f 127/334/2 123/524/2 122/335/2
f 125/337/9 123/525/9 127/338/9
f 131/340/10 133/526/10 132/341/10
f 133/343/1 137/527/1 136/344/1
f 137/346/11 135/528/11 134/347/11
f 135/349/2 131/529/2 130/350/2
f 133/352/3 131/530/3 135/353/3
f 160/355/2 164/531/2 163/356/2
f 141/358/1 142/532/1 145/359/1
f 145/361/10 142/533/10 143/362/10
f 138/364/3 145/534/3 144/365/3
f 141/367/4 140/535/4 143/368/4
f 139/370/2 144/536/2 143/371/2
f 149/373/2 156/537/2 155/374/2
f 147/376/4 148/538/4 155/377/4
f 121/379/16 151/539/47 119/380/17
f 153/384/19 152/412/20 116/414/21
f 153/384/19 116/414/21 119/382/48
f 147/385/1 154/540/1 157/386/1
f 157/388/10 154/541/10 155/389/10
f 150/391/3 157/542/3 156/392/3
f 118/394/1 121/543/1 120/395/1
f 151/397/8 146/544/7 152/398/20
f 158/400/4 159/545/4 163/401/4
f 158/403/1 162/546/1 165/404/1
f 165/406/10 162/547/10 163/407/10
f 161/409/3 165/548/3 164/410/3
f 112/415/49 167/549/49 166/416/49
f 112/418/1 114/550/1 171/419/1
f 113/551/1 171/419/1 114/550/1
f 208/420/1 168/552/1 112/418/1
f 169/421/4 168/553/4 112/422/4
f 172/554/25 174/555/32 175/556/26
f 174/431/27 177/557/43 176/432/28
f 180/434/29 181/444/42 178/435/30
f 174/558/27 178/559/30 177/560/43
f 172/561/25 173/562/24 176/563/31
f 172/437/25 176/564/31 178/438/30
f 181/445/42 179/447/50 177/565/43
f 188/566/28 189/567/43 190/440/33
f 191/442/35 188/566/28 190/440/33
f 183/568/25 185/569/32 186/570/23
f 185/451/27 189/571/43 188/452/28
f 191/454/29 192/461/42 187/455/30
f 185/572/27 187/573/30 189/574/43
f 183/575/25 184/576/24 188/577/31
f 183/457/25 188/578/31 187/458/30
f 192/462/42 190/464/50 189/579/43
f 189/580/43 187/581/30 192/582/42
f 181/583/42 177/584/43 178/585/30
f 176/586/28 177/587/43 179/465/33
f 180/467/53 176/586/28 179/465/33
f 170/474/4 171/588/4 113/475/4
f 197/589/25 194/590/32 195/591/26
f 194/480/27 200/592/43 199/481/28
f 202/483/29 203/493/42 198/484/30
f 194/593/27 198/594/30 200/595/43
f 197/596/25 196/597/24 199/598/31
f 197/486/25 199/599/31 198/487/30
f 203/494/42 201/496/50 200/600/43
f 199/601/28 200/602/43 201/489/33
f 202/491/35 199/601/28 201/489/33
f 208/497/3 207/603/3 170/498/3
f 166/604/2 169/605/2 111/508/2
f 112/418/1 168/552/1 167/606/1
f 170/503/51 206/607/51 205/504/51
f 169/605/2 207/500/2 111/508/2
f 170/502/2 110/608/2 115/507/2
f 111/508/2 207/500/2 170/502/2
f 211/510/10 212/609/10 209/511/10
o gasstation_red_Plane.002
v -7.648116 0.194099 3.862885
v -8.035182 0.194098 -4.118460
v 7.876572 0.194099 3.862885
v 8.003574 0.190633 -4.118993
vt 0.298480 0.323487
vt 0.138989 0.323481
vt 0.079716 0.246184
vt 0.364682 0.246184
vn -0.0002 1.0000 0.0010
vn 0.0002 1.0000 -0.0000
vn -0.0002 1.0000 0.0012
vn 0.0000 1.0000 -0.0004
g gasstation_red_Plane.002_gasstation_red
usemtl gasstation_red
s 1
f 216/610/55 214/611/56 213/612/56
f 216/610/57 213/612/56 215/613/58
