# Blender v2.92.0 OBJ File: ''
# www.blender.org
mtllib window.mtl
o screen002_Mesh.001
v 0.243830 -0.802355 -0.046625
v -0.257219 -0.802355 -0.046625
v -0.257219 0.809371 -0.046625
v 0.243830 0.809371 -0.046625
vt -58.797379 -321.442963
vt 99.013229 -321.443024
vt 99.013351 186.186951
vt -58.797256 186.186981
vn 0.0000 0.0000 -1.0000
usemtl screen
s 1
f 1/1/1 2/2/1 3/3/1 4/4/1
o window_trim-interior001_Mesh.003
v -0.347295 0.916277 0.025527
v 0.324736 0.904715 0.025265
v 0.338831 0.918863 0.021713
v -0.348377 0.917685 0.009371
v 0.279872 0.860224 0.016332
v -0.290828 0.859813 0.016332
v 0.336513 -0.911444 0.025833
v 0.337653 -0.911928 0.009372
v 0.280230 -0.854080 0.016340
v -0.348377 -0.911928 0.009372
v -0.347891 -0.910912 0.025811
v -0.290506 -0.854379 0.016332
vt -58.797379 -321.442963
vt -58.797379 -321.442963
vt -58.797379 -321.442963
vt -58.797379 -321.442963
vt -58.797379 -321.442963
vt -58.797379 -321.442963
vt -58.797379 -321.442963
vt -58.797379 -321.442963
vt -58.797379 -321.442963
vt -58.797379 -321.442963
vt -58.797379 -321.442963
vt -58.797379 -321.442963
vn -0.0040 0.8512 0.5248
vn 0.0034 0.1300 0.9915
vn 0.0044 0.2661 0.9639
vn -0.0033 0.9962 0.0870
vn -0.5270 -0.8154 -0.2397
vn 0.7009 -0.7123 -0.0369
vn 0.0611 -0.0487 -0.9969
vn 0.3340 0.0704 -0.9399
vn 0.8564 -0.0011 0.5163
vn 0.1330 0.0012 0.9911
vn 0.7016 0.0479 -0.7110
vn -0.6930 0.7197 -0.0418
vn -0.0008 -0.9981 0.0612
vn 0.0000 -0.9996 0.0294
vn 0.0000 -0.8739 0.4861
vn -0.0008 -0.8593 0.5115
vn 0.7005 0.7126 -0.0385
vn 0.0601 0.0600 -0.9964
vn -0.9978 0.0003 0.0666
vn -0.9996 0.0000 0.0296
vn -0.8734 0.0000 0.4870
vn -0.8632 0.0003 0.5049
usemtl paint_glossy_white
s 1
f 5/5/2 6/6/3 7/7/4
f 7/7/4 8/8/5 5/5/2
f 9/9/6 10/10/7 8/8/8
f 8/8/8 7/7/9 9/9/6
f 6/6/3 5/5/2 10/10/7
f 10/10/7 9/9/6 6/6/3
f 11/11/10 7/7/9 6/6/11
f 7/7/9 11/11/10 12/12/12
f 13/13/13 9/9/6 7/7/9
f 7/7/9 12/12/12 13/13/13
f 11/11/10 6/6/11 9/9/6
f 9/9/6 13/13/13 11/11/10
f 14/14/14 12/12/15 11/11/16
f 11/11/16 15/15/17 14/14/14
f 16/16/18 13/13/13 12/12/12
f 12/12/12 14/14/19 16/16/18
f 15/15/17 11/11/16 13/13/13
f 13/13/13 16/16/18 15/15/17
f 8/8/20 14/14/21 15/15/22
f 15/15/22 5/5/23 8/8/20
f 10/10/7 16/16/18 14/14/19
f 14/14/19 8/8/8 10/10/7
f 5/5/23 15/15/22 16/16/18
f 16/16/18 10/10/7 5/5/23
